<svg width="84" height="84" viewBox="0 0 84 84" fill="none" xmlns="http://www.w3.org/2000/svg">
<g clip-path="url(#clip0)">
<path d="M72.8094 0H10.4013C4.65948 0 0 4.65653 0 10.3947V72.7632C0 78.5014 4.65948 83.1579 10.4013 83.1579H72.8094C78.538 83.1315 83.1579 78.4882 83.1579 72.7632V10.3947C83.1579 4.66972 78.538 0.0263826 72.8094 0ZM36.1935 62.9884C36.1671 65.719 33.9363 67.922 31.204 67.922H15.8396C13.0941 67.9352 10.8501 65.7322 10.8237 62.9884V15.8032C10.8237 13.0462 13.0545 10.8169 15.8132 10.8169C15.8264 10.8169 15.8264 10.8169 15.8396 10.8169H31.204C33.9627 10.8169 36.1935 13.0462 36.1935 15.8032V62.9884ZM72.4002 42.1989C72.4002 44.9559 70.1694 47.1852 67.4107 47.1852H52.0067C49.248 47.1852 47.0172 44.9559 47.0172 42.1989V15.8164C47.004 13.0594 49.2348 10.83 51.9935 10.8169H52.0067H67.4107C70.1694 10.8169 72.4002 13.0462 72.4002 15.8032V42.1989Z" fill="url(#paint0_linear)"/>
</g>
<defs>
<linearGradient id="paint0_linear" x1="41.5789" y1="83.1572" x2="41.5789" y2="0" gradientUnits="userSpaceOnUse">
<stop offset="0.18" stop-color="#0052CC"/>
<stop offset="1" stop-color="#2684FF"/>
</linearGradient>
<clipPath id="clip0">
<rect width="83.1579" height="83.1579" fill="white"/>
</clipPath>
</defs>
</svg>
