<svg width="111" height="30" viewBox="0 0 111 30" fill="none" xmlns="http://www.w3.org/2000/svg">
<g clip-path="url(#clip0)">
<path d="M11.4028 4.4046C9.12325 4.46412 6.60994 4.70221 5.90855 4.88077C6.60994 4.70221 9.12325 4.46412 11.4028 4.4046ZM12.8055 7.73781H11.5197C11.4028 8.27351 11.3443 8.8092 11.2859 9.34489L10.3507 15.1185H11.9288C13.9745 15.1185 15.4942 13.3924 15.4942 10.7734C15.4942 8.92824 14.4421 7.73781 12.8055 7.73781ZM30.2234 13.9876C29.2882 13.9876 28.6452 15.8328 28.2945 17.3208H28.8206C29.9896 17.3208 30.9247 16.547 31.0416 15.5947V15.2375C31.0416 14.9399 30.9832 14.6423 30.8078 14.4042C30.7494 14.1661 30.5156 13.9876 30.2234 13.9876ZM60.7922 14.2257C60.7338 14.2257 60.7338 14.1661 60.6753 14.1661C60.6169 14.1066 60.5 14.1066 60.4415 14.1066C60.2662 14.1066 60.0908 14.1661 59.9739 14.2852C59.9155 14.3447 59.857 14.3447 59.7986 14.4042C59.7401 14.4638 59.7401 14.5233 59.6817 14.5233C59.3894 14.9399 59.1556 15.3566 59.0387 15.8328C58.9803 15.8923 58.9803 16.0113 58.9218 16.1304C58.8049 16.428 58.7465 16.7851 58.6296 17.0827L58.4542 17.8565C58.3373 18.6898 58.2204 19.5826 58.2204 20.4754L58.2789 21.7849C58.2672 21.8861 58.2906 21.9932 58.3373 22.0825L58.5127 22.7968L58.688 23.1539C58.8634 23.511 59.0387 23.6896 59.2725 23.6896C59.3894 23.6896 59.4479 23.6896 59.5648 23.6301C59.6817 23.5706 59.7986 23.511 59.9155 23.392C60.2662 22.9753 60.6169 22.2611 60.9091 21.3087L61.0845 20.5945L61.2598 19.7017L61.3767 18.4517C61.4351 18.0351 61.4351 17.6779 61.4351 17.2613C61.4936 16.428 61.3767 15.5351 61.0845 14.7018C61.0845 14.5828 60.9676 14.3447 60.7922 14.2257ZM105.564 19.4636L105.856 17.4398C107.142 17.3208 108.136 17.0827 108.896 16.547C109.831 15.9518 111 14.8209 111 12.6186C111 11.4282 110.708 10.2972 110.182 9.28537C109.597 8.21398 108.487 7.55925 107.318 7.55925H107.142C107.084 5.7736 105.623 4.4046 103.869 4.34508C102.233 4.34508 100.596 4.46412 99.0179 4.70221C97.6151 4.9403 96.5046 6.24977 96.2708 7.67829C96.2708 7.73781 92.53 7.67829 90.0752 7.67829C88.1464 7.67829 87.1527 8.63064 87.1527 8.63064C87.1527 8.63064 86.2175 7.38068 83.7042 7.67829C82.4768 7.73781 81.3078 7.91638 80.0804 8.15446C80.3142 6.6069 80.4895 5.05934 80.548 3.51178V3.39273C80.548 1.54756 79.0868 0.0595216 77.2748 0C74.8784 0 72.1313 0.35713 70.7285 0.654738C69.2089 1.07139 68.1568 2.49991 68.2152 4.10699C68.2737 5.53551 67.6307 9.82107 67.6307 9.82107C66.1111 8.51159 64.0654 7.79733 61.7274 7.79733C59.6232 7.79733 57.5191 8.27351 55.6487 9.28537C55.0058 8.57111 54.0706 8.09494 53.1354 8.15446C51.265 8.15446 49.8622 8.15446 48.5179 8.27351C47.4658 8.33303 46.5306 8.92824 45.9462 9.88059C45.8877 9.82107 45.8877 9.76155 45.8293 9.70202C45.2448 8.63063 44.1342 7.9759 42.9653 7.9759C40.5104 7.9759 36.2436 8.69016 36.0683 8.8092C34.607 8.15446 33.0289 7.79733 31.3923 7.85685C28.9959 7.79733 26.658 8.45207 24.6707 9.70202C24.32 4.64269 20.0532 1.19043 13.9745 1.19043C13.9745 1.19043 6.55149 1.48804 5.20717 1.78565C3.62904 2.14278 2.51851 3.63082 2.63541 5.2379C2.63541 6.36881 2.57696 7.55925 2.34316 8.8092L0.180547 22.9753C0.00519938 23.8086 -0.403944 26.3681 1.17418 28.2728C1.81712 29.0466 2.9861 29.9394 5.03182 29.9394C5.967 29.9394 8.48031 29.8203 10.526 28.868C11.0521 28.6299 11.5197 28.2132 11.8704 27.7371C12.9809 29.0466 14.6175 29.9989 17.0139 29.9989C19.118 29.9989 21.1638 29.4632 23.0341 28.5109C24.7291 29.5227 26.658 30.0584 28.6452 29.9989C32.2106 29.9989 35.5422 28.5704 37.6464 26.13C38.8154 29.1656 40.978 29.8799 42.7315 29.8799C44.1927 29.8799 45.9462 29.7013 47.6996 28.8085C49.1608 28.0942 49.8038 25.6538 50.096 25.1181C51.5573 28.0942 54.4797 29.9394 58.162 29.9394C61.0845 29.9394 63.9485 28.987 66.2864 27.0823C66.4618 27.3799 66.6371 27.618 66.8125 27.8561C67.5723 28.7489 69.0335 29.8203 71.5468 29.8203C73.3588 29.8799 75.1707 29.3442 76.6319 28.3323C77.4502 29.1656 78.7945 29.9394 80.8402 29.9394C82.3599 29.9394 83.8796 29.5227 85.2239 28.8085C86.2175 29.5227 87.5034 29.8799 89.0231 29.8799C91.4195 29.8799 93.5821 29.0466 94.9849 27.5585C96.1539 28.7489 98.1996 29.9394 101.707 29.9394C104.921 29.9394 108.136 27.8561 109.773 25.0586C111.058 22.9753 109.656 19.285 105.564 19.4636ZM21.3391 10.7139C21.1638 13.3328 19.5272 15.4756 17.0139 16.8446L19.2934 22.9753C19.9363 24.642 20.3455 25.2967 21.0469 25.8324C20.8715 25.9514 20.6962 26.0109 20.5208 26.0705C19.4103 26.4276 18.1829 26.6657 17.0139 26.6062C15.8449 26.6062 14.2668 26.3086 13.2731 23.392L11.5781 18.3922H9.88309L9.12325 23.1539C9.00635 23.6896 8.9479 24.2253 8.9479 24.761V24.88C8.9479 25.1776 9.00635 25.4753 9.12325 25.7729C7.83737 26.3681 6.0839 26.5466 5.03182 26.5466C4.15508 26.5466 3.3368 26.249 3.27835 24.7015C3.27835 24.2848 3.3368 23.8682 3.39524 23.4515L5.55786 9.28537C5.73321 8.21398 5.8501 7.08307 5.8501 6.01168V4.88077C6.55149 4.70221 9.0648 4.4046 11.3443 4.4046H13.8576C15.3773 4.34508 16.8385 4.70221 18.2413 5.29742C18.592 5.47599 19.0011 5.71408 19.2934 5.95216C19.5856 6.19025 19.8779 6.48786 20.1701 6.78546C20.5208 7.26164 20.8131 7.73781 21.0469 8.33303C21.2222 8.92824 21.3391 9.52346 21.3391 10.1782V10.7139ZM29.6973 20.2374C29.4635 20.2374 29.2297 20.2969 29.0544 20.2969H28.1192V20.654C28.2361 22.3206 28.9375 23.7491 30.4572 23.7491H30.8078C32.2691 23.5706 33.1458 22.4992 33.9056 22.4992C34.2563 22.5587 34.607 22.6777 34.8993 22.8563L35.6591 23.3325C35.1331 24.1063 34.4901 24.761 33.6719 25.2372C32.1522 26.249 30.3987 26.7252 28.5868 26.7252C24.7291 26.7252 22.3912 24.5229 22.2158 21.0111V20.4159C22.2158 15.9518 25.0798 11.071 31.4508 11.071C32.386 11.071 33.3212 11.1901 34.1394 11.4877C35.6591 12.0234 36.5359 13.1543 36.5359 14.6423C36.5943 16.428 35.4838 19.7017 29.6973 20.2374ZM47.4074 23.0944C46.8813 23.9872 46.4137 24.9396 46.0631 25.9514C45.011 26.4871 43.842 26.6062 42.673 26.6062C41.6794 26.6062 40.7442 26.13 40.2766 23.511L38.8154 16.0708C38.5231 14.5828 38.0555 13.0948 37.471 11.6662C37.9971 11.5472 38.5231 11.4282 39.0492 11.3686C39.1661 11.3686 39.283 11.3091 39.3999 11.3091H39.4583C39.5752 11.3091 39.6921 11.3091 39.8674 11.2496H39.9259C40.2181 11.2496 40.5104 11.1901 40.8611 11.1901H43.0237C43.2575 11.6662 43.4913 12.1424 43.6666 12.6186C43.7251 12.7971 43.7835 12.9162 43.842 13.0948C43.9589 13.4519 44.0173 13.809 44.0758 14.1661L45.0694 20.9516C45.8877 19.3445 46.6475 17.6779 47.3489 16.0113C47.8165 14.8804 48.2257 13.7495 48.5179 12.5591C48.6348 12.1424 48.6933 11.7853 48.8102 11.3686C49.1609 11.3091 49.5115 11.3091 49.8622 11.3091H53.1354C53.0185 12.321 52.7847 13.2733 52.3755 14.2257C50.9728 17.2613 49.2193 20.1778 47.4074 23.0944ZM65.585 23.1539C65.059 23.8682 64.4161 24.4634 63.7147 24.9396C63.5978 25.0586 63.4224 25.1181 63.3055 25.2372C63.3055 25.2372 63.2471 25.2372 63.2471 25.2967C63.1302 25.3562 63.0133 25.4753 62.8964 25.5348C62.8964 25.5348 62.8379 25.5348 62.8379 25.5943C62.721 25.6538 62.6041 25.7133 62.4288 25.7729C62.4288 25.7729 62.3703 25.7729 62.3703 25.8324C62.195 25.8919 62.0781 25.9514 61.9027 26.0109C61.6105 26.13 61.2598 26.249 60.9091 26.3681C60.8507 26.3681 60.8507 26.3681 60.7922 26.4276C60.6753 26.4871 60.5584 26.4871 60.4415 26.5466C60.3831 26.5466 60.3246 26.5466 60.2662 26.6062C60.1493 26.6062 60.0324 26.6657 59.9155 26.6657C59.857 26.6657 59.7986 26.6657 59.7401 26.7252C59.6232 26.7252 59.5063 26.7847 59.3894 26.7847H57.2853C57.1684 26.7847 56.993 26.7252 56.8761 26.7252C56.8177 26.7252 56.7008 26.6657 56.6423 26.6657C56.5254 26.6657 56.4085 26.6062 56.2916 26.6062C56.2332 26.6062 56.1163 26.5466 56.0578 26.5466C55.9409 26.4871 55.824 26.4871 55.7656 26.4276C55.7071 26.3681 55.5902 26.3681 55.5318 26.3086C55.4149 26.249 55.3564 26.249 55.2396 26.1895C55.1811 26.13 55.0642 26.13 55.0058 26.0705C54.9473 26.0109 54.8304 25.9514 54.772 25.8919C54.7135 25.8324 54.6551 25.7729 54.5382 25.7729C54.4797 25.7133 54.3628 25.6538 54.3044 25.5943L53.603 24.88C53.5445 24.8205 53.4861 24.761 53.4276 24.642C53.3692 24.5824 53.3107 24.5229 53.2523 24.4039C53.188 24.3384 53.1529 24.2551 53.1354 24.1658C53.0769 24.1063 53.0769 23.9872 53.0185 23.9277C52.96 23.8682 52.96 23.7491 52.9016 23.6896C52.8431 23.6301 52.8431 23.511 52.7847 23.4515C52.7262 23.3325 52.7262 23.273 52.6678 23.1539C52.6678 23.0944 52.6093 22.9753 52.6093 22.9158C52.6093 22.7968 52.5509 22.7373 52.5509 22.6182C52.5509 22.5587 52.4924 22.4397 52.4924 22.3801C52.434 22.0825 52.3755 21.7849 52.3755 21.4873V20.773C52.3755 17.4398 53.8952 14.6423 56.2332 12.9757C56.6423 12.6781 56.993 12.44 57.4606 12.2615C57.8698 12.0829 58.3373 11.9043 58.7465 11.7258H58.8049C59.0387 11.6662 59.2141 11.6067 59.4479 11.5472H59.5063C59.7401 11.4877 59.9155 11.4877 60.1493 11.4282H60.2077C60.4415 11.3686 60.6753 11.3686 60.8507 11.3686H62.4872C62.6626 11.3686 62.7795 11.4282 62.9548 11.4282H63.0717C63.2471 11.4877 63.4224 11.4877 63.5978 11.5472C63.6562 11.5472 63.7147 11.6067 63.7731 11.6067C63.89 11.6662 64.0069 11.6662 64.1238 11.7258C64.1823 11.7258 64.2407 11.7853 64.2992 11.7853C64.4161 11.8448 64.5914 11.9043 64.7083 11.9638C64.7667 11.9638 64.8252 12.0234 64.8836 12.0829C64.9421 12.1424 65.059 12.2019 65.1174 12.2615C65.1759 12.321 65.2343 12.321 65.2928 12.3805C65.3571 12.4519 65.4389 12.5174 65.5266 12.5591C65.6435 12.6186 65.7019 12.7376 65.8188 12.7971L66.2864 13.2733C66.4033 13.4519 66.5787 13.6305 66.6956 13.809C66.754 13.9281 66.8125 13.9876 66.8709 14.1066C66.8709 14.1661 66.9294 14.1661 66.9294 14.2257C67.397 15.2375 67.6892 16.3089 67.6307 17.4398C67.5723 19.3445 66.8709 21.4278 65.585 23.1539ZM77.0995 5.71408L76.7488 8.21398L76.1059 12.4995L74.4693 23.0944C74.4693 23.2134 74.4108 23.3325 74.4108 23.4515V23.8682C74.4108 23.9277 74.4693 23.9872 74.4693 24.0467V24.1063C74.4693 24.1658 74.5277 24.2253 74.5862 24.2848L74.82 24.5229C75.0538 24.7015 75.346 24.761 75.6383 24.761C75.4045 25.1181 75.1122 25.4157 74.7615 25.5943C74.7031 25.5943 74.7031 25.6538 74.6446 25.6538C74.5862 25.7133 74.4693 25.7729 74.4108 25.8324C74.3524 25.8919 74.2939 25.8919 74.2355 25.8919C74.177 25.9514 74.0601 25.9514 74.0017 26.0109C73.8848 26.0705 73.7094 26.13 73.5341 26.1895C73.4756 26.1895 73.4172 26.249 73.3003 26.249C73.1834 26.3086 73.0665 26.3086 72.9496 26.3086C72.8912 26.3086 72.8327 26.3086 72.7158 26.3681C72.5989 26.3681 72.482 26.4276 72.3067 26.4276H70.5532C70.4947 26.4276 70.4363 26.4276 70.4363 26.3681C70.3779 26.3681 70.3779 26.3681 70.3194 26.3086C70.261 26.3086 70.2025 26.249 70.2025 26.249C70.2025 26.249 70.1441 26.249 70.1441 26.1895C70.0856 26.1895 70.0272 26.13 69.9687 26.13H69.9103C69.6765 26.0109 69.4427 25.8324 69.2673 25.5943V25.5348C69.2089 25.4753 69.2089 25.4157 69.1504 25.3562C69.1504 25.3562 69.1504 25.2967 69.092 25.2967C69.0335 25.2372 69.0335 25.1776 69.0335 25.1181V25.0586C69.0335 24.9991 68.9751 24.9396 68.9751 24.8205V24.761C68.9751 24.7015 68.9166 24.5824 68.9166 24.5229V24.1658C68.9166 23.8682 68.9166 23.6301 68.9751 23.3325L71.3715 8.15446C71.4299 7.9759 71.4299 7.79733 71.4299 7.55925C71.5468 6.84499 71.6053 6.19025 71.6637 5.47599V3.74986C71.7806 3.74986 71.8391 3.69034 71.956 3.69034C72.0729 3.69034 72.1898 3.63082 72.3067 3.63082C72.482 3.5713 72.7158 3.5713 72.9496 3.51178C73.0665 3.51178 73.1834 3.51178 73.3003 3.45225C73.651 3.39273 74.0017 3.39273 74.4108 3.33321C74.7031 3.33321 74.9369 3.27369 75.2291 3.27369C75.9305 3.21417 76.6904 3.21417 77.3917 3.21417C77.3917 3.69034 77.3333 4.28556 77.3333 4.88077C77.1579 5.29742 77.0995 5.53551 77.0995 5.71408ZM93.0561 24.8205C92.3547 25.8919 90.835 26.6062 89.0231 26.6062H88.4386C88.2633 26.6062 88.0879 26.5466 87.9126 26.4871L87.3865 26.3086C86.5682 25.9514 86.1007 25.1181 86.3345 23.511L86.3929 23.2134C86.3344 23.392 86.2175 23.511 86.1006 23.6896C85.9253 23.9872 85.6915 24.2848 85.5162 24.5229C85.2824 24.761 85.0486 24.9991 84.8148 25.1776C84.6979 25.2967 84.581 25.3562 84.4641 25.4753C84.2244 25.6538 83.9673 25.8145 83.7042 25.9514C83.2366 26.1895 82.7106 26.4276 82.1846 26.5466C81.9508 26.6062 81.717 26.6657 81.4832 26.6657C81.2494 26.6657 81.074 26.7252 80.8402 26.7252H80.3142C80.2557 26.7252 80.1388 26.7252 80.0804 26.6657C80.0219 26.6657 79.9635 26.6657 79.905 26.6062C79.8466 26.6062 79.7882 26.5466 79.7297 26.5466C79.6713 26.5466 79.6128 26.4871 79.5544 26.4871C79.5544 26.4871 79.4959 26.4871 79.4959 26.4276C78.1516 25.8324 77.7424 24.2253 78.0931 22.0825L79.0283 16.0113C79.0283 15.8328 79.0868 15.6542 79.0868 15.5351V15.3566C79.0868 15.2375 79.0868 15.178 79.1452 15.059V14.5828C79.2037 14.2257 79.2037 13.9281 79.2037 13.5709V12.6186C79.2037 12.2615 79.2037 11.9638 79.1452 11.5472C79.2037 11.5472 79.2621 11.4877 79.379 11.4877C79.4375 11.4877 79.4959 11.4877 79.6128 11.4282H84.9317C84.9901 12.7376 84.6979 14.5233 84.4641 16.1899L83.6458 21.3087C83.6458 21.4278 83.5289 22.3206 83.5289 22.5587C83.5289 22.7968 83.5289 23.0944 83.5873 23.3325C83.5873 23.4515 83.6458 23.5706 83.7042 23.7491C83.7627 23.8086 83.8211 23.9277 83.8796 23.9277H83.938C84.1134 23.9277 84.4056 23.7491 84.7563 23.392C85.2824 22.8563 85.6915 22.2016 86.0422 21.5468C86.1591 21.2492 86.3345 21.0111 86.4514 20.654C86.5682 20.3564 86.6851 19.9993 86.802 19.7017C86.8605 19.5231 86.9189 19.3445 86.9189 19.166L87.3281 16.2494C87.3865 15.8328 87.445 15.4756 87.5034 15.1185L87.6788 13.4519C87.7372 12.9162 87.7957 12.321 87.7957 11.6662C88.4971 11.6067 91.2442 11.2496 93.3483 11.3091C93.2899 12.9162 93.1145 14.5233 92.8223 16.1304L91.7118 23.273C91.7118 24.2848 92.1794 24.8205 93.0561 24.8205ZM96.3292 22.9158C96.3292 22.5587 96.3292 22.2016 96.3877 21.904L97.5567 14.4638C97.3229 14.4638 97.206 14.5233 97.0891 14.5233C96.7968 14.5828 96.6799 14.5828 96.563 14.6423C96.3877 14.7018 96.1539 14.7018 95.9785 14.7614C95.8032 13.6959 95.8032 12.6126 95.9785 11.5472C96.2123 11.5472 96.4461 11.5472 96.7968 11.4877H98.1996C98.6087 10.3568 99.2517 9.40442 99.4855 8.09494C99.8362 8.03542 100.304 7.9759 100.771 7.91638C101.005 7.91638 101.122 7.85685 101.297 7.85685C101.473 7.85685 101.648 7.85685 101.882 7.79733C102.466 7.73781 103.109 7.73781 103.869 7.73781C103.811 8.74968 103.694 9.99963 103.518 11.4877H104.571C106.207 11.4877 106.85 11.3091 107.376 10.8925C107.668 11.4282 107.844 12.0234 107.844 12.6186C107.844 13.4519 107.61 13.9876 105.038 14.0471H103.109L101.94 21.4873V21.9635C101.94 22.9753 102.408 23.8086 103.168 23.8086C104.395 23.8086 104.687 22.8563 105.155 22.8563C106.266 23.0349 106.909 23.6896 106.909 23.6896C106.09 25.2967 103.986 26.7847 101.765 26.7847C98.3749 26.7252 96.4461 25.1776 96.3292 22.9158Z" fill="#231F20"/>
</g>
<defs>
<clipPath id="clip0">
<rect width="111" height="30" fill="white"/>
</clipPath>
</defs>
</svg>
